"Efternamn","Förnamn","Klubb","Plats","Distans","Datum","Tid","Reg. Nr"
"Adielsson","Anna","Hisingens CK","Göteborg",200,2007-04-21,"9h55",258212
"Aerts","Peter","ARD","Göteborg",200,2007-04-14,"8h24",258123
"Akebrand","David","Individuell","Sundsvall",200,2007-04-21,"8h40",258235
"Alén","Mika","Fredrikshofs IF CK","Stockholm",200,2007-04-21,"12h30",258200
"Ambertson","Kjell","Fredrikshofs IF CK","Stockholm",200,2007-04-14,"9h53",258151
"Andersson","Bjorn","Fredrikshofs IF CK","Stockholm",200,2007-03-31,"7h49",254460
"Andersson","Bjorn","Fredrikshofs IF CK","Stockholm",300,2007-05-05,"12h48",94284
"Andersson","Bjorn","Fredrikshofs IF CK","Stockholm",400,2007-05-19,"17h28",60424
"Andersson","Bjorn","Fredrikshofs IF CK","Stockholm",600,2007-06-09,"25h20",47058
"Andersson","Josephine","Hisingens CK","Göteborg",200,2007-04-21,"9h55",258213
"Andersson","Lars","Fredrikshofs IF CK","Stockholm",200,2007-03-31,"7h29",254461
"Andersson","Mats","Fredrikshofs IF CK","Stockholm",200,2007-03-31,"7h49",254462
"Andersson","Mattias","CK Distans","Malmö",200,2007-03-31,"8h40",254501
"Andersson","Mattias","CK Distans","Malmö",300,2007-04-21,"13h48",92795
"Andersson","Uno","CK Dainon","Örebro",200,2007-04-14,"8h00",258150
"Andersson","Uno","CK Dainon","Örebro",300,2007-04-28,"13h40",93341
"Andersson","Uno","CK Dainon","Örebro",400,2007-05-19,"19h56",60423
"Andersson","Uno","CK Dainon","Örebro",600,2007-06-23,"34h30",48674
"Annerang","Carl","Hisingens CK","Göteborg",200,2007-04-14,"10h22",258078
"Annerang","Carl","Hisingens CK","Göteborg",300,2007-04-28,"16h25",93300
"Annerang","Carl","Hisingens CK","Göteborg",400,2007-05-19,"19h50",60443
"Appelgren","Christer","Hisingens CK","Göteborg",200,2007-04-14,"9h07",258079
"Appelgren","Christer","Hisingens CK","Göteborg",300,2007-04-28,"14h55",93301
"Appelgren","Christer","Hisingens CK","Göteborg",400,2007-05-12,"16h59",59068
"Appelgren","Christer","Hisingens CK","Göteborg",600,2007-06-02,"30h00",43427
"Arvidsson","Daniel","Orebrocyklisterna","Örebro",200,2007-04-21,"8h20",258183
"Asplund","Tomas","Fredrikshofs IF CK","Stockholm",200,2007-04-21,"8h32",258201
"Asplund","Tomas","Fredrikshofs IF CK","Stockholm",300,2007-05-05,"11h28",94285
"Asplund","Tomas","Fredrikshofs IF CK","Stockholm",400,2007-05-12,"14h48",59034
"Backlund","Kent","Alno CK","Sundsvall",200,2007-04-21,"8h40",258230
"Becher","Tomas","Individuell","Malmö",200,2007-03-31,"9h08",254505
"Beg","Ali","Orebrocyklisterna","Örebro",200,2007-04-14,"7h10",258129
"Beg","Ali","Orebrocyklisterna","Örebro",200,2007-04-21,"7h35",258184
"Behm","Terho","Hisingens CK","Göteborg",200,2007-04-14,"9h50",258080
"Behm","Terho","Hisingens CK","Göteborg",300,2007-04-28,"17h00",93302
"Behm","Terho","Hisingens CK","Göteborg",400,2007-05-19,"25h00",60444
"Behre","Christian","Hisingens CK","Göteborg",200,2007-04-14,"7h15",258081
"Behre","Christian","Hisingens CK","Göteborg",300,2007-04-28,"12h02",93303
"Behre","Christian","Hisingens CK","Göteborg",400,2007-05-12,"16h55",59069
"Bellung","Ingemar","Individuell","Skövde",200,2007-04-28,"09h00",258854
"Berggren","Jan-Erik","CK Distans","Göteborg",200,2007-04-14,"6h54",258121
"Berggren","Jan-Erik","CK Distans","Göteborg",200,2007-04-21,"8h52",258226
"Berggren","Jan-Erik","CK Distans","Göteborg",300,2007-04-28,"12h07",93327
"Berggren","Jan-Erik","CK Distans","Göteborg",400,2007-05-19,"17h25",60465
"Berggren","Jan-Erik","CK Distans","Göteborg",600,2007-06-02,"24h45",43447
"Bergqvist","Tony","Hisingens CK","Göteborg",200,2007-04-14,"9h42",258082
"Bergqvist","Tony","Hisingens CK","Göteborg",300,2007-04-28,"16h20",93304
"Bergqvist","Tony","Hisingens CK","Göteborg",300,2007-05-05,"13h53",94259
"Bergqvist","Tony","Hisingens CK","Göteborg",400,2007-05-19,"18h45",60445
"Bergqvist","Tony","Hisingens CK","Göteborg",600,2007-06-09,"37h45",47040
"Bergqvist","Tony","Hisingens CK","Örebro",1000,2007-06-28,"70h35",5008
"Borg ","Tobias","CK Distans","Västerås",200,2007-03-24,"9h37",252670
"Bove","Mogens","Hisingens CK","Göteborg",200,2007-04-14,"9h07",258083
"Bove","Mogens","Hisingens CK","Göteborg",200,2007-04-21,"9h20",258214
"Bove","Mogens","Hisingens CK","Göteborg",300,2007-04-28,"14h55",93305
"Bove","Mogens","Hisingens CK","Göteborg",400,2007-05-12,"16h59",59070
"Bove","Mogens","Hisingens CK","Göteborg",600,2007-06-09,"37h45",47041
"Bove","Mogens","Hisingens CK","Örebro",1000,2007-06-28,"70h35",5009
"Brandt","Ulf","Orebrocyklisterna","Örebro",200,2007-04-14,"7h30",258130
"Bruton","Joseph","Fredrikshofs IF CK","Västerås",200,2007-03-24,"9h50",252664
"Bruton","Joseph","Fredrikshofs IF CK","Stockholm",200,2007-03-31,"10h25",254463
"Bruton","Joseph","Fredrikshofs IF CK","Västerås",300,2007-04-14,"14h12",92777
"Bruton","Joseph","Fredrikshofs IF CK","Stockholm",400,2007-05-19,"19h59",60425
"Bruton","Joseph","Fredrikshofs IF CK","Stockholm",600,2007-06-02,"32h20",43448
"Buller","Annelie","Fredrikshofs IF CK","Stockholm",200,2007-03-31,"8h14",254464
"Buller","Annelie","Fredrikshofs IF CK","Stockholm",200,2007-04-14,"8h40",258152
"Buller","Annelie","Fredrikshofs IF CK","Stockholm",300,2007-04-28,"14h22",93342
"Buller","Annelie","Fredrikshofs IF CK","Örebro",400,2007-06-02,"19h37",61453
"Buller","Annelie","Fredrikshofs IF CK","Stockholm",600,2007-06-09,"35h59",47059
"Bylin","Hakan","Hisingens CK","Göteborg",200,2007-04-14,"11h40",258084
"Bylin","Hakan","Hisingens CK","Göteborg",300,2007-05-05,"18h05",94260
"Bylin","Hakan","Hisingens CK","Göteborg",400,2007-05-19,"25h00",60446
"Bylin","Hakan","Hisingens CK","Göteborg",600,2007-06-16,"39h30",48084
"Carlson","Hakan","Fredrikshofs IF CK","Stockholm",200,2007-04-21,"8h32",258202
"Carlsson","Christer","CK Distans","Kil",300,2007-05-12,"13h55",94460
"Carlsson","Mikael","Hisingens CK","Göteborg",200,2007-04-14,"6h54",258085
"Carlsson","Mikael","Hisingens CK","Göteborg",300,2007-04-28,"11h55",93306
"Carlsson","Mikael","Hisingens CK","Göteborg",400,2007-05-12,"15h05",59071
"Carlsson","Mikael","Hisingens CK","Göteborg",600,2007-06-02,"28h20",43428
"Carlstrom","Henry","Hisingens CK","Göteborg",200,2007-04-14,"8h24",258086
"Carlstrom","Henry","Hisingens CK","Göteborg",300,2007-04-28,"12h28",93307
"Carlstrom","Henry","Hisingens CK","Göteborg",300,2007-05-05,"13h53",94261
"Carlstrom","Henry","Hisingens CK","Göteborg",400,2007-05-12,"19h00",59072
"Carlstrom","Henry","Hisingens CK","Göteborg",400,2007-05-19,"18h45",60447
"Carlstrom","Henry","Hisingens CK","Göteborg",600,2007-06-02,"35h15",43429
"Carlstrom","Henry","Hisingens CK","Göteborg",600,2007-06-09,"37h45",47042
"Carlstrom","Henry","Hisingens CK","Örebro",1000,2007-06-28,"66h15",5010
"Christiansen","Jan","CK Distans","Västerås",200,2007-03-10,"9h55",252187
"Christiansen","Jan","CK Distans","Västerås",300,2007-04-14,"11h57",92786
"Classon","Per-Ake","Hisingens CK","Göteborg",200,2007-04-14,"6h54",258087
"Classon","Per-Ake","Hisingens CK","Göteborg",300,2007-04-28,"11h55",93308
"Classon","Per-Ake","Hisingens CK","Göteborg",400,2007-05-12,"15h05",59073
"Classon","Per-Ake","Hisingens CK","Göteborg",600,2007-06-02,"24h45",43430
"Colliander","Olle","Fredrikshofs IF CK","Stockholm",200,2007-03-31,"8h14",254465
"Colliander","Olle","Fredrikshofs IF CK","Stockholm",300,2007-04-28,"11h46",93343
"Colliander","Olle","Fredrikshofs IF CK","Stockholm",300,2007-05-05,"12h50",94286
"Colliander","Olle","Fredrikshofs IF CK","Stockholm",400,2007-05-12,"19h45",59035
"Colliander","Olle","Fredrikshofs IF CK","Stockholm",600,2007-06-02,"32h12",43449
"Dahlstrom","Gunnar","Orebrocyklisterna","Örebro",200,2007-04-14,"9h40",258131
"Danielsson","Jan","Orebrocyklisterna","Örebro",200,2007-04-14,"7h05",258132
"Danielsson","Jan","Orebrocyklisterna","Örebro",300,2007-04-28,"11h50",93329
"Danielsson","Jan","Orebrocyklisterna","Örebro",400,2007-06-02,"15h40",61455
"Danielsson","Jan","Orebrocyklisterna","Örebro",600,2007-06-09,"29h55",47049
"Danielsson","Jan","Orebrocyklisterna","Örebro",1000,2007-07-12,"61h15",5148
"Davidsson","Kenneth","Kumla CA","Örebro",400,2007-06-02,"15h40",61460
"De Leye","Girard","Fredrikshofs IF CK","Stockholm",200,2007-03-31,"8h19",258153
"De Leye","Girard","Fredrikshofs IF CK","Stockholm",300,2007-04-28,"15h58",93344
"De Leye","Girard","Fredrikshofs IF CK","Stockholm",400,2007-05-12,"17h05",59036
"De Leye","Girard","Fredrikshofs IF CK","Stockholm",600,2007-06-02,"36h40",43450
"Dellbeck","Johan","CK Distans","Västerås",200,2007-03-24,"9h50",252671
"Dellbeck","Johan","CK Distans","Stockholm",200,2007-03-31,"10h25",254490
"Dellbeck","Johan","CK Distans","Västerås",300,2007-04-14,"14h06",92787
"Dellbeck","Johan","CK Distans","Stockholm",400,2007-05-12,"19h46",59057
"Dellbeck","Johan","CK Distans","Stockholm",600,2007-06-09,"32h55",47066
"Dimming","Bjorn","Hisingens CK","Göteborg",200,2007-04-14,"10h34",258088
"Dimming","Bjorn","Hisingens CK","Göteborg",300,2007-05-05,"19h50",94262
"Dous","Fredrik","Fredrikshofs IF CK","Stockholm",200,2007-04-14,"9h44",258154
"Eiman","Tony","CK Distans","Malmö",200,2007-04-14,"12h06",258126
"Einarsson","Markus","Individuell","Göteborg",200,2007-04-21,"8h52",258227
"Ekner","Lennart","Fredrikshofs IF CK","Stockholm",200,2007-03-31,"8h06",254466
"Ekner","Lennart","Fredrikshofs IF CK","Stockholm",300,2007-04-28,"12h54",93345
"Eliasson","Henrik","Hisingens CK","Göteborg",200,2007-04-14,"7h34",258089
"Eliasson","Henrik","Hisingens CK","Göteborg",400,2007-05-19,"17h25",60448
"Eliasson","Henrik","Hisingens CK","Göteborg",600,2007-06-02,"24h45",43431
"Eliasson","Henrik","Hisingens CK","Västerås",400,2007-06-16,"16h20",61740
"Eliesson","Magnus","Hisingens CK","Göteborg",200,2007-04-14,"10h27",258090
"Eliesson","Magnus","Hisingens CK","Göteborg",300,2007-04-28,"17h45",93309
"Eliesson","Magnus","Hisingens CK","Göteborg",300,2007-05-05,"16h05",94263
"Eliesson","Magnus","Hisingens CK","Göteborg",400,2007-05-19,"22h50",60449
"Eliesson","Magnus","Hisingens CK","Göteborg",600,2007-06-16,"39h30",48085
"Eriksson","Bo Einar","Fredrikshofs IF CK","Stockholm",200,2007-03-31,"7h25",254467
"Eriksson","Henrik","Fredrikshofs IF CK","Västerås",200,2007-03-10,"9h58",252178
"Eriksson","Henrik","Fredrikshofs IF CK","Västerås",300,2007-04-14,"14h20",92778
"Eriksson","Henrik","Fredrikshofs IF CK","Stockholm",400,2007-05-12,"23h20",59037
"Eriksson","Henrik","Fredrikshofs IF CK","Stockholm",600,2007-06-02,"29h05",43451
"Eriksson","Henrik","Fredrikshofs IF CK","Stockholm",600,2007-06-09,"32h55",47060
"Eriksson","Henrik","Fredrikshofs IF CK","Örebro",1000,2007-07-12,"61h15",5146
"Eriksson","Mats","Mera Lera MTB","Örebro",200,2007-04-21,"9h00",258197
"Eriksson","Stig","Orebrocyklisterna","Örebro",200,2007-04-14,"8h50",258133
"Fant","Kenneth","Fredrikshofs IF CK","Västerås",200,2007-03-24,"9h50",252665
"Fant","Kenneth","Fredrikshofs IF CK","Västerås",300,2007-05-12,"14h54",94462
"Fant","Kenneth","Fredrikshofs IF CK","Stockholm",400,2007-05-19,"19h59",60426
"Fant","Kenneth","Fredrikshofs IF CK","Stockholm",600,2007-06-09,"32h55",47061
"Folkesson","Hakan","Orebrocyklisterna","Örebro",200,2007-04-14,"7h15",258134
"Forsten","Leo","Hisingens CK","Göteborg",200,2007-04-14,"8h24",258091
"Forsten","Leo","Hisingens CK","Göteborg",300,2007-04-28,"12h28",93310
"Forsten","Leo","Hisingens CK","Göteborg",400,2007-05-12,"16h59",59074
"Forsten","Leo","Hisingens CK","Göteborg",600,2007-06-02,"35h15",43432
"Framme","Erik","Hisingens CK","Göteborg",200,2007-04-14,"7h16",258092
"Framme","Erik","Hisingens CK","Göteborg",300,2007-05-05,"12h15",94264
"Framme","Erik","Hisingens CK","Göteborg",400,2007-05-12,"15h05",59075
"Framme","Erik","Hisingens CK","Göteborg",600,2007-06-02,"34h04",43433
"Franzen","Thomas","Hisingens CK","Göteborg",200,2007-04-14,"10h27",258093
"Franzen","Thomas","Hisingens CK","Göteborg",300,2007-05-05,"13h15",94265
"Franzen","Thomas","Hisingens CK","Göteborg",400,2007-05-19,"18h45",60450
"Franzen","Thomas","Hisingens CK","Göteborg",600,2007-06-09,"37h45",47043
"Fredin","Dick","Alno CK","Sundsvall",200,2007-04-14,"7h38",258174
"Fredin","Dick","Alno CK","Sundsvall",200,2007-04-21,"8h40",258231
"Fredin","Dick","Alno CK","Sundsvall",300,2007-04-28,"12h55",93382
"Fredin","Dick","Alno CK","Sundsvall",400,2007-05-12,"17h40",59064
"Fredin","Dick","Alno CK","Sundsvall",600,2007-06-02,"32h25",43477
"Fredricson","Lennart","Hisingens CK","Göteborg",200,2007-04-14,"10h27",258094
"Fredricson","Lennart","Hisingens CK","Göteborg",300,2007-05-05,"16h05",94266
"Fredricson","Lennart","Hisingens CK","Göteborg",400,2007-05-19,"22h50",60451
"Fredricson","Lennart","Hisingens CK","Göteborg",600,2007-06-16,"39h30",48086
"Fredriksson","Daniel","Hisingens CK","Göteborg",200,2007-04-21,"8h35",258215
"Fredriksson","Daniel","Hisingens CK","Göteborg",300,2007-05-05,"15h23",94267
"Fritz","Mattias","Orebrocyklisterna","Örebro",200,2007-04-21,"7h55",258185
"Fritz","Mattias","Orebrocyklisterna","Örebro",300,2007-04-28,"11h50",93330
"Fritz","Mattias","Orebrocyklisterna","Örebro",400,2007-06-02,"15h40",61456
"Funk","Tommy","Orebrocyklisterna","Örebro",200,2007-04-14,"8h00",258135
"Funk","Tommy","Orebrocyklisterna","Örebro",200,2007-04-21,"8h20",258186
"Funk","Tommy","Orebrocyklisterna","Örebro",300,2007-04-28,"12h20",93331
"Funk","Tommy","Orebrocyklisterna","Skövde",300,2007-05-12,"13h40",94299
"Funk","Tommy","Orebrocyklisterna","Örebro",400,2007-05-19,"17h50",60416
"Funk","Tommy","Orebrocyklisterna","Skövde",400,2007-05-26,"17h50",60431
"Funk","Tommy","Orebrocyklisterna","Örebro",400,2007-06-02,"15h40",61457
"Funk","Tommy","Orebrocyklisterna","Skövde",600,2007-06-09,"32h35",47056
"Funk","Tommy","Orebrocyklisterna","Örebro",600,2007-06-23,"33h10",48673
"Funk","Tommy","Orebrocyklisterna","Örebro",1000,2007-06-28,"62h35",5014
"Gadd","Suzanne","Hisingens CK","Göteborg",200,2007-04-14,"10h20",258095
"Gadd","Suzanne","Hisingens CK","Göteborg",300,2007-04-28,"16h20",93311
"Granlund","Bjorn","Fredrikshofs IF CK","Stockholm",200,2007-03-31,"10h25",254468
"Granlund","Bjorn","Fredrikshofs IF CK","Stockholm",200,2007-04-14,"8h56",258155
"Granlund","Bjorn","Fredrikshofs IF CK","Stockholm",300,2007-04-28,"14h22",93346
"Granlund","Bjorn","Fredrikshofs IF CK","Stockholm",400,2007-05-19,"19h46",60427
"Granlund","Bjorn","Fredrikshofs IF CK","Örebro",400,2007-06-02,"19h37",61454
"Granlund","Bjorn","Fredrikshofs IF CK","Stockholm",600,2007-06-23,"32h49",48817
"Granqvist","Owe","Fredrikshofs IF CK","Stockholm",200,2007-03-31,"8h14",254469
"Green","Jorgen","ARD","Örebro",600,2007-06-23,"34h50",48675
"Gronwall","Christina","Mera Lera MTB","Örebro",200,2007-04-21,"9h00",258198
"Gronwall","Thomas","Mera Lera MTB","Örebro",200,2007-04-21,"9h00",258199
"Grusell","Christer","Fredrikshofs IF CK","Stockholm",200,2007-03-31,"8h05",254470
"Grusell","Christer","Fredrikshofs IF CK","Stockholm",200,2007-04-14,"8h30",258156
"Grusell","Christer","Fredrikshofs IF CK","Stockholm",300,2007-04-28,"12h53",93347
"Grusell","Christer","Fredrikshofs IF CK","Stockholm",400,2007-05-12,"17h06",59038
"Grusell","Christer","Fredrikshofs IF CK","Stockholm",600,2007-06-02,"36h40",43452
"Gustavsson","Henrik","Hisingens CK","Göteborg",200,2007-04-14,"6h54",258096
"Gustavsson","Henrik","Hisingens CK","Göteborg",300,2007-04-28,"11h55",93312
"Gustavsson","Henrik","Hisingens CK","Göteborg",400,2007-05-12,"15h05",59076
"Gustavsson","Henrik","Hisingens CK","Göteborg",600,2007-06-02,"24h45",43434
"Gustavsson","Tord","Hisingens CK","Göteborg",300,2007-04-28,"17h45",93325
"Gustavsson","Tord","Hisingens CK","Göteborg",200,2007-05-06,"10h30",259224
"Hagstrom","Bjorn","Grangardeb. CK","Örebro",200,2007-04-21,"9h00",258196
"Hagstrom","Bjorn","Grangardeb. CK","Örebro",300,2007-05-12,"13h25",94298
"Hagstrom","Bjorn","Grangardeb. CK","Västerås",400,2007-05-26,"16h24",60442
"Hagstrom","Bjorn","Grangardeb. CK","Örebro",600,2007-06-09,"31h20",47055
"Hagstrom","Bjorn","Grangardeb. CK","Örebro",1000,2007-06-28,"66h15",5018
"Haland","Arne","Tullinge CK","Stockholm",200,2007-04-14,"7h24",258173
"Haland","Joel","Fredrikshofs IF CK","Stockholm",200,2007-04-14,"7h24",258157
"Hallander","Goran","Hisingens CK","Göteborg",200,2007-04-14,"6h54",258097
"Hamberg","Magnus","Fredrikshofs IF CK","Stockholm",200,2007-03-31,"8h40",254471
"Hamberg","Magnus","Fredrikshofs IF CK","Stockholm",300,2007-04-28,"12h53",93348
"Hamberg","Magnus","Fredrikshofs IF CK","Stockholm",400,2007-05-12,"17h05",59039
"Hamberg","Magnus","Fredrikshofs IF CK","Stockholm",600,2007-06-09,"35h59",47062
"Hammarstedt","Mikael","Fredrikshofs IF CK","Stockholm",200,2007-04-14,"9h48",258158
"Hammarstedt","Mikael","Fredrikshofs IF CK","Stockholm",300,2007-04-28,"14h58",93349
"Hammarstedt","Mikael","Fredrikshofs IF CK","Stockholm",400,2007-05-12,"21h26",59040
"Hammarstedt","Mikael","Fredrikshofs IF CK","Stockholm",600,2007-06-02,"30h53",43453
"Hammeryd","Mikael","Individuell","Stockholm",200,2007-04-21,"8h37",258211
"Hampus","Peter","Fredrikshofs IF CK","Stockholm",200,2007-03-31,"10h25",254472
"Hampus","Peter","Fredrikshofs IF CK","Stockholm",300,2007-04-28,"13h04",93350
"Hampus","Peter","Fredrikshofs IF CK","Stockholm",400,2007-05-12,"19h46",59041
"Hampus","Peter","Fredrikshofs IF CK","Stockholm",600,2007-06-02,"36h40",43454
"Hampus","Peter","Fredrikshofs IF CK","Örebro",1000,2007-06-28,"66h15",5003
"Hansson","Mattias","Individuell","Göteborg",200,2007-05-06,"8h30",259225
"Hardin","Hans","Fredrikshofs IF CK","Västerås",200,2007-03-10,"8h52",252188
"Hardin","Hans","Fredrikshofs IF CK","Stockholm",200,2007-03-31,"7h20",254473
"Hardin","Hans","Fredrikshofs IF CK","Västerås",300,2007-04-14,"11h57",92779
"Hardin","Hans","Fredrikshofs IF CK","Stockholm",200,2007-04-21,"7h43",258203
"Hardin","Hans","Fredrikshofs IF CK","Stockholm",300,2007-04-28,"10h33",93351
"Hardin","Hans","Fredrikshofs IF CK","Stockholm",300,2007-05-05,"11h28",94287
"Hardin","Hans","Fredrikshofs IF CK","Stockholm",400,2007-05-19,"17h28",60428
"Hardin","Hans","Fredrikshofs IF CK","Stockholm",600,2007-06-09,"25h20",47063
"Hardin","Hans","Fredrikshofs IF CK","Örebro",600,2007-06-16,"31h09",48083
"Hardin","Hans","Fredrikshofs IF CK","Örebro",1000,2007-06-28,"61h20",5004
"Hedberg","Christer","Drylane CS","Göteborg",200,2007-04-14,"10h27",258122
"Hedberg","Christer","Drylane CS","Göteborg",300,2007-05-05,"13h53",94283
"Hedberg","Christer","Drylane CS","Göteborg",400,2007-05-19,"18h45",60466
"Hedberg","Christer","Drylane CS","Göteborg",600,2007-06-09,"37h45",47048
"Heggoy","Geir","Kumla CA","Örebro",200,2007-04-14,"7h15",258147
"Heggoy","Geir","Kumla CA","Örebro",300,2007-04-28,"11h50",93339
"Heggoy","Geir","Kumla CA","Örebro",400,2007-06-02,"15h40",61461
"Heggoy","Geir","Kumla CA","Örebro",600,2007-06-09,"29h55",47053
"Heinermark","Tommy","Fredrikshofs IF CK","Stockholm",200,2007-03-31,"7h25",254474
"Heinermark","Tommy","Fredrikshofs IF CK","Stockholm",300,2007-05-05,"11h28",94288
"Heinermark","Tommy","Fredrikshofs IF CK","Stockholm",400,2007-05-12,"18h12",59042
"Heinermark","Tommy","Fredrikshofs IF CK","Stockholm",600,2007-06-02,"29h05",43455
"Hektor","Magnus","CK Valhall","Västerås",200,2007-03-10,"8h50",252182
"Hektor","Magnus","CK Valhall","Västerås",300,2007-04-14,"11h57",92784
"Hektor","Magnus","CK Valhall","Stockholm",200,2007-04-21,"7h43",258209
"Hektor","Magnus","CK Valhall","Stockholm",300,2007-05-05,"12h50",94295
"Hektor","Magnus","CK Valhall","Stockholm",400,2007-05-12,"14h48",59055
"Hektor","Magnus","CK Valhall","Stockholm",600,2007-06-02,"23h38",43472
"Hellblom","Anders","Fredrikshofs IF CK","Stockholm",200,2007-03-31,"8h05",254475
"Hellblom","Anders","Fredrikshofs IF CK","Stockholm",200,2007-04-21,"8h32",258204
"Hellman","Arne","Fredrikshofs IF CK","Stockholm",200,2007-04-14,"8h40",258159
"Hellman","Arne","Fredrikshofs IF CK","Stockholm",300,2007-04-28,"15h58",93352
"Hidfors","Lars","Hisingens CK","Göteborg",200,2007-04-14,"10h22",258098
"Hidfors","Lars","Hisingens CK","Göteborg",200,2007-04-21,"9h55",258216
"Hidfors","Lars","Hisingens CK","Göteborg",300,2007-04-28,"16h25",93313
"Hidfors","Lars","Hisingens CK","Göteborg",400,2007-05-19,"19h50",60452
"Hidfors","Lars","Hisingens CK","Göteborg",600,2007-06-09,"38h47",47044
"Hidfors","Lars","Hisingens CK","Örebro",1000,2007-06-28,"70h35",5011
"Hinkkanen","Olavi","Hisingens CK","Göteborg",200,2007-04-14,"8h02",258099
"Hinkkanen","Olavi","Hisingens CK","Göteborg",200,2007-04-21,"8h52",258217
"Hinkkanen","Olavi","Hisingens CK","Göteborg",300,2007-04-28,"11h52",93314
"Hinkkanen","Olavi","Hisingens CK","Göteborg",400,2007-05-19,"16h10",60453
"Hinkkanen","Olavi","Hisingens CK","Göteborg",600,2007-06-02,"26h00",43435
"Holm","Par","Fredrikshofs IF CK","Stockholm",200,2007-03-31,"8h05",254476
"Holm","Par","Fredrikshofs IF CK","Stockholm",300,2007-04-28,"12h09",93353
"Holm","Par","Fredrikshofs IF CK","Stockholm",400,2007-05-12,"15h45",59043
"Holm","Par","Fredrikshofs IF CK","Stockholm",600,2007-06-02,"35h44",43457
"Holm","Stefan","Fredrikshofs IF CK","Stockholm",200,2007-04-14,"9h31",258160
"Holm","Stefan","Fredrikshofs IF CK","Stockholm",200,2007-04-21,"9h12",258205
"Holm","Stefan","Fredrikshofs IF CK","Stockholm",300,2007-04-28,"13h22",93354
"Holm","Stefan","Fredrikshofs IF CK","Stockholm",400,2007-05-12,"17h58",59044
"Holm","Stefan","Fredrikshofs IF CK","Stockholm",600,2007-06-02,"31h30",43456
"Holmgren","Johan","Fredrikshofs IF CK","Stockholm",200,2007-03-31,"8h05",254477
"Hulten","Christer","Alno CK","Sundsvall",200,2007-04-14,"7h38",258175
"Hulten","Christer","Alno CK","Sundsvall",300,2007-04-28,"12h55",93377
"Hulten","Christer","Alno CK","Sundsvall",400,2007-05-12,"17h40",59065
"Hulten ","Christer","Alno CK","Sundsvall",600,2007-06-02,"25h06",43478
"Hylén","Anders","Individuel","Malmö",200,2007-04-14,"08h28",258128
"Iivonen","Ari","CK Distans","Västerås",200,2007-03-10,"8h50",252189
"Iivonen","Ari","CK Distans","Stockholm",200,2007-04-21,"7h43",258210
"Iivonen","Ari","CK Distans","Stockholm",300,2007-04-28,"10h12",93369
"Iivonen","Ari","CK Distans","Stockholm",300,2007-05-05,"11h28",94294
"Iivonen","Ari","CK Distans","Stockholm",400,2007-05-12,"14h48",59058
"Iivonen","Ari","CK Distans","Stockholm",600,2007-06-02,"23h38",43473
"Ingvarsson","Magnus","Fredrikshofs IF CK","Stockholm",200,2007-03-31,"8h14",254478
"Ingvarsson","Magnus","Fredrikshofs IF CK","Stockholm",300,2007-05-05,"12h50",94289
"Ingvarsson","Magnus","Fredrikshofs IF CK","Stockholm",400,2007-05-12,"19h45",59045
"Ingvarsson","Magnus","Fredrikshofs IF CK","Stockholm",600,2007-06-02,"32h12",43458
"Inkinen","Marie","CK Ceres","Örebro",200,2007-04-14,"8h50",258149
"Inkinen","Marie","CK Ceres","Örebro",200,2007-04-21,"9h00",258195
"Inkinen","Marie","CK Ceres","Örebro",300,2007-04-28,"13h40",93340
"Inkinen","Marie","CK Ceres","Örebro",400,2007-05-19,"18h10",60422
"Inkinen","Marie","CK Ceres","Örebro",600,2007-06-09,"33h35",47054
"Inkinen","Marie","CK Ceres","Örebro",1000,2007-06-28,"66h15",5017
"Jansson","Bjorn","Fredrikshofs IF CK","Stockholm",200,2007-03-31,"7h07",254479
"Jansson","Bjorn","Fredrikshofs IF CK","Stockholm",300,2007-04-28,"10h33",93356
"Jansson","Jan-Olov","Fredrikshofs IF CK","Stockholm",200,2007-03-31,"10h25",254480
"Jansson","Jan-Olov","Fredrikshofs IF CK","Stockholm",200,2007-04-14,"9h35",258161
"Jansson","Jan-Olov","Fredrikshofs IF CK","Stockholm",300,2007-04-28,"13h00",93355
"Jansson","Jan-Olov","Fredrikshofs IF CK","Stockholm",400,2007-05-12,"19h43",59046
"Jansson","Jan-Olov","Fredrikshofs IF CK","Stockholm",600,2007-06-09,"32h55",47064
"Jansson","Lars","Orebrocyklisterna","Örebro",200,2007-04-14,"7h05",258136
"Jarlfors","Arne","Individuell","Skövde",200,2007-04-28,"09h00",258855
"Jenhagen","Joakim","Alno CK","Sundsvall",200,2007-04-14,"8h15",258176
"Jenhagen","Joakim","Alno CK","Sundsvall",300,2007-04-28,"12h55",93380
"Johansson","Annie","Hisingens CK","Göteborg",200,2007-04-14,"9h40",258100
"Johansson","Annie","Hisingens CK","Göteborg",300,2007-05-05,"16h05",94268
"Johansson","Annie","Hisingens CK","Göteborg",400,2007-05-19,"25h00",60454
"Johansson","Annie","Hisingens CK","Göteborg",600,2007-06-16,"39h30",48087
"Johansson","Hakan","Fredrikshofs IF CK","Stockholm",200,2007-03-31,"9h59",254481
"Johansson","Mikael","Hisingens CK","Göteborg",200,2007-04-21,"9h55",258218
"Johansson","Mikael","Hisingens CK","Göteborg",300,2007-05-05,"13h53",94269
"Johansson","Mikael","Hisingens CK","Göteborg",400,2007-05-19,"19h05",60455
"Johansson","Mikael","Hisingens CK","Göteborg",600,2007-06-02,"37h35",43436
"Johansson","Per-Gunnar","Fredrikshofs IF CK","Stockholm",200,2007-04-14,"9h43",258162
"Johansson","Per-Gunnar","Fredrikshofs IF CK","Stockholm",300,2007-04-28,"13h00",93357
"Johansson","Per-Gunnar","Fredrikshofs IF CK","Stockholm",600,2007-06-02,"29h05",43459
"Johansson","Per-Gunnar","Fredrikshofs IF CK","Stockholm",400,2007-06-09,"21h30",61496
"Johnsson","Benny","Hisingens CK","Göteborg",200,2007-04-14,"6h54",258101
"Jonsson","Mattias","Individuell","Stockholm",300,2007-04-28,"14h50",93374
"Jonsson","Mattias","Individuell","Stockholm",400,2007-05-12,"18h12",59062
"Jonsson","Olle","Fredrikshofs IF CK","Västerås",200,2007-03-10,"11h40",252179
"Jonsson","Olle","Fredrikshofs IF CK","Stockholm",300,2007-04-28,"12h09",93358
"Jonsson","Olle","Fredrikshofs IF CK","Stockholm",400,2007-05-12,"17h06",59047
"Jonsson","Olle","Fredrikshofs IF CK","Stockholm",600,2007-06-02,"29h05",43460
"Kalscheuer","Thomas","Individuell","Stockholm",300,2007-04-28,"14h50",93375
"Kalscheuer","Thomas","Individuell","Stockholm",400,2007-05-12,"18h12",59063
"Kanderholm","Peter","Hisingens CK","Göteborg",200,2007-04-14,"7h00",258102
"Kanderholm","Peter","Hisingens CK","Göteborg",300,2007-04-28,"11h55",93315
"Kanderholm","Peter","Hisingens CK","Göteborg",400,2007-05-12,"15h05",59077
"Kanderholm","Peter","Hisingens CK","Göteborg",600,2007-06-02,"28h20",43437
"Kappes","Uli","Hisingens CK","Göteborg",200,2007-04-14,"7h51",258103
"Kappes","Uli","Hisingens CK","Göteborg",300,2007-05-05,"13h53",94270
"Kappes","Uli","Hisingens CK","Göteborg",400,2007-05-12,"19h00",59078
"Kappes","Uli","Hisingens CK","Göteborg",600,2007-06-02,"34h35",43438
"Karlsson","Hakan","Fredrikshofs IF CK","Stockholm",200,2007-03-31,"8h14",254482
"Karlsson","Kent","Hisingens CK","Göteborg",200,2007-04-21,"9h55",258219
"Karlsson","Kent","Hisingens CK","Göteborg",300,2007-04-28,"16h20",93326
"Karlsson","Kent","Hisingens CK","Göteborg",400,2007-05-19,"18h45",60456
"Karlsson","Kent","Hisingens CK","Göteborg",600,2007-06-02,"37h35",43439
"Karlsson","Lars Johan","Fredrikshofs IF CK","Stockholm",200,2007-04-14,"8h30",258163
"Karlsson","Lars Johan","Fredrikshofs IF CK","Stockholm",300,2007-04-28,"12h13",93359
"Karlsson","Lars Johan","Fredrikshofs IF CK","Stockholm",400,2007-05-12,"17h06",59048
"Karlsson","Lars Johan","Fredrikshofs IF CK","Stockholm",600,2007-06-02,"32h12",43461
"Karlsson","Leif","Hisingens CK","Göteborg",200,2007-04-14,"9h20",258104
"Karlsson","Leif","Hisingens CK","Göteborg",300,2007-04-28,"16h20",93316
"Karlsson","Lennart","Orebrocyklisterna","Örebro",300,2007-04-28,"12h45",93332
"Karlsson","Mattias","Hisingens CK","Göteborg",200,2007-04-14,"9h20",258105
"Karlsson","Mattias","Hisingens CK","Göteborg",300,2007-04-28,"16h20",93317
"Keskitalo","Lasse","Orebrocyklisterna","Örebro",200,2007-04-14,"6h50",258137
"Keskitalo","Lasse","Orebrocyklisterna","Örebro",300,2007-04-28,"11h30",93333
"Keskitalo","Lasse","Orebrocyklisterna","Örebro",400,2007-05-19,"16h45",60417
"Keskitalo","Lasse","Orebrocyklisterna","Örebro",600,2007-06-09,"23h30",47050
"Kiereck","Frank","Orebrocyklisterna","Örebro",200,2007-04-14,"6h50",258138
"Kiereck","Frank","Orebrocyklisterna","Örebro",300,2007-04-28,"11h30",93334
"Kiereck","Frank","Orebrocyklisterna","Örebro",400,2007-05-19,"16h45",60418
"Kiereck","Frank","Orebrocyklisterna","Örebro",600,2007-06-09,"23h30",47051
"Kinsley","Steven","Individuell","Sundsvall",200,2007-04-21,"8h40",258236
"Klyver","Terje","Trosa Vagnharad CK","Stockholm",200,2007-03-31,"8h05",254496
"Klyver","Terje","Trosa Vagnharad CK","Stockholm",200,2007-04-14,"7h24",258172
"Klyver","Terje","Trosa Vagnharad CK","Stockholm",300,2007-04-28,"11h20",93373
"Klyver","Terje","Trosa Vagnharad CK","Stockholm",400,2007-05-12,"15h45",59061
"Klyver","Terje","Trosa Vagnharad CK","Stockholm",600,2007-06-02,"34h10",43476
"Klyver","Terje","Trosa Vagnharad CK","Örebro",1000,2007-06-28,"61h20",5016
"Kristiansen","Johannes","ARD","Göteborg",200,2007-04-14,"10h45",258124
"Kristiansen","Johannes","ARD","Örebro",1000,2007-06-28,"66h15",5019
"Kroona","Pierre","Individuell","Göteborg",200,2007-05-06,"8h30",259226
"Kulin","Anders","Hisingens CK","Göteborg",200,2007-04-21,"8h15",258220
"Kulin","Anders","Hisingens CK","Göteborg",300,2007-05-05,"11h35",94271
"Kulin","Anders","Hisingens CK","Göteborg",400,2007-05-12,"15h05",59079
"Kulin","Anders","Hisingens CK","Göteborg",600,2007-06-02,"24h45",43440
"Kumpula","Joakim","Orans SK Cykel","Skövde",200,2007-04-28,"10h40",258853
"Kumpula","Joakim","Orans SK Cykel","Sundsvall",300,2007-05-05,"15h00",94296
"Kumpula","Joakim","Orans SK Cykel","Skövde",400,2007-05-26,"17h50",60433
"Kumpula","Joakim","Orans SK Cykel","Sundsvall",600,2007-06-02,"34h37",43480
"Lansheim","Bertil","Individuell","Malmö",200,2007-03-31,"9h08",254506
"Lansheim","Bertil","Individuell","Malmö",300,2007-04-21,"15h02",92799
"Larsson","Bjorn","Alno CK","Sundsvall",200,2007-04-14,"8h15",258177
"Larsson","Bjorn","Alno CK","Sundsvall",300,2007-04-28,"12h55",93381
"Larsson","Bjorn","Alno CK","Sundsvall",400,2007-05-26,"19h10",60435
"Larsson","Bjorn","Alno CK","Sundsvall",600,2007-06-16,"31h40",48091
"Larsson","Jonas","Fredrikshofs IF CK","Västerås",200,2007-03-24,"9h37",252666
"Larsson","Jonas","Fredrikshofs IF CK","Västerås",300,2007-04-14,"11h57",92780
"Larsson","Jonas","Fredrikshofs IF CK","Västerås",400,2007-05-26,"16h24",60438
"Larsson","Jonas","Fredrikshofs IF CK","Stockholm",600,2007-06-02,"23h38",43462
"Lennstrom","Mikael","Hisingens CK","Göteborg",200,2007-04-14,"8h24",258106
"Lennstrom","Mikael","Hisingens CK","Göteborg",300,2007-04-28,"16h20",93318
"Lennstrom","Mikael","Hisingens CK","Göteborg",400,2007-05-19,"18h45",60457
"Lido","Johan","Balsta CK","Västerås",200,2007-03-10,"8h50",252183
"Linden","Par","Hisingens CK","Göteborg",200,2007-04-14,"9h42",258107
"Linden","Par","Hisingens CK","Göteborg",200,2007-04-21,"9h55",258221
"Linden","Par","Hisingens CK","Göteborg",300,2007-05-05,"13h53",94272
"Linden","Par","Hisingens CK","Göteborg",400,2007-05-12,"19h00",59080
"Linden","Par","Hisingens CK","Göteborg",600,2007-06-02,"36h35",43441
"Linder","Anders","SMACK","Stockholm",200,2007-03-31,"7h40",254492
"Linder","Anders","SMACK","Stockholm",300,2007-04-28,"11h20",93372
"Linder","Anders","SMACK","Stockholm",400,2007-05-12,"16h42",59060
"Linder","Anders","SMACK","Stockholm",600,2007-06-02,"35h44",43475
"Lindgren","Joacim","Orebrocyklisterna","Örebro",200,2007-04-21,"8h20",258187
"Lindgren","Kristian","Hisingens CK","Göteborg",200,2007-04-14,"6h54",258108
"Lindgren","Kristian","Hisingens CK","Göteborg",300,2007-04-28,"11h55",93319
"Lindgren","Kristian","Hisingens CK","Göteborg",400,2007-05-12,"15h05",59081
"Lindgren","Kristian","Hisingens CK","Göteborg",600,2007-06-02,"28h20",43442
"Lindroth","Joakim","Hisingens CK","Göteborg",300,2007-05-05,"13h53",94273
"Lindvall","Jan-Erik","Fredrikshofs IF CK","Sundsvall",200,2007-04-21,"8h40",258229
"Lindvall","Jan-Erik","Fredrikshofs IF CK","Stockholm",300,2007-04-28,"11h20",93360
"Lovén","Stefan","IFK Helsingborg","Malmö",200,2007-03-31,"7h50",254497
"Lovén","Stefan","IFK Helsingborg","Malmö",300,2007-04-21,"14h27",92790
"Lundberg","Joacim","Fredrikshofs IF CK","Stockholm",200,2007-04-14,"9h48",258164
"Lundberg","Nina","Fredrikshofs IF CK","Stockholm",200,2007-03-31,"8h05",254483
"Lundblad","Goran","IFK Helsingborg","Malmö",200,2007-03-31,"7h53",254498
"Lundblad","Goran","IFK Helsingborg","Malmö",300,2007-04-21,"11h31",92791
"Lundblad","Goran","IFK Helsingborg","Malmö",400,2007-05-05,"18h30",59028
"Lundblad","Goran","IFK Helsingborg","Göteborg",600,2007-06-02,"34h04",43446
"Lundgaard","Stig","ARD","Örebro",600,2007-06-23,"34h50",48676
"Lundkvist","Per","Orebrocyklisterna","Örebro",200,2007-04-14,"7h30",258139
"Lundkvist","Per","Orebrocyklisterna","Örebro",400,2007-05-19,"18h30",60419
"Mansson","Anders","Fredrikshofs IF CK","Stockholm",200,2007-04-14,"9h48",258165
"Mattsson","Johan","Alno CK","Stockholm",200,2007-03-31,"8h05",254491
"Mattsson","Johan","Alno CK","Sundsvall",200,2007-04-14,"8h15",258178
"Mattsson","Johan","Alno CK","Sundsvall",200,2007-04-21,"8h40",258232
"Mattsson","Johan","Alno CK","Sundsvall",300,2007-04-28,"12h55",93379
"Mattsson","Johan ","Alno CK","Sundsvall",400,2007-05-12,"17h40",59066
"Mellsop","Tony","CK Distans","Malmö",200,2007-03-31,"7h53",254502
"Mellsop","Tony","CK Distans","Malmö",300,2007-04-21,"11h31",92796
"Mellsop","Tony","CK Distans","Malmö",400,2007-05-05,"15h28",59031
"Mellsop","Tony","CK Distans","Malmö",600,2007-05-26,"22h51",43151
"Molleborn","Johan","Fredrikshofs IF CK","Västerås",200,2007-03-10,"9h55",252190
"Molleborn","Johan","Fredrikshofs IF CK","Stockholm",300,2007-04-28,"10h12",93370
"Molleborn","Johan","Fredrikshofs IF CK","Stockholm",400,2007-05-12,"14h48",59059
"Molleborn","Johan","Fredrikshofs IF CK","Stockholm",600,2007-06-02,"23h38",43463
"Moller","Mikael","Hisingens CK","Göteborg",200,2007-04-14,"10h20",258109
"Muzellec","Jean-Claude","Audax Club Nordique","Kil",200,2007-04-28,"9h10",258851
"Muzellec","Jean-Claude","Audax Club Nordique","Kil",300,2007-05-12,"15h05",94459
"Muzellec","Jean-Claude","Audax Club Nordique","Kil",400,2007-06-02,"18h35",61450
"Muzellec","Jean-Claude","Audax Club Nordique","Kil",600,2007-06-16,"34h20",48079
"Nanderod","Markus","Alno CK","Sundsvall",200,2007-04-14,"7h38",258179
"Nilsson","Bjorn","Hisingens CK","Göteborg",200,2007-04-14,"10h20",258110
"Nilsson","Bjorn","Hisingens CK","Göteborg",300,2007-04-28,"16h20",93320
"Nilsson","Bror","Hisingens CK","Göteborg",200,2007-04-14,"8h00",258111
"Nilsson","Bror","Hisingens CK","Göteborg",300,2007-04-28,"13h05",93321
"Nilsson","Bror","Hisingens CK","Göteborg",400,2007-05-19,"18h45",60458
"Nilsson","Bror","Hisingens CK","Göteborg",600,2007-06-09,"31h45",47045
"Nilsson","Christina","Fredrikshofs IF CK","Stockholm",200,2007-04-14,"9h48",258166
"Nilsson","Christina","Fredrikshofs IF CK","Stockholm",300,2007-04-28,"14h57",93361
"Nilsson","Christina","Fredrikshofs IF CK","Stockholm",400,2007-05-12,"21h26",59049
"Nilsson","Christina","Fredrikshofs IF CK","Stockholm",600,2007-06-02,"30h53",43464
"Nilsson","Ingmar","CK Trelleborg","Malmö",200,2007-03-31,"9h08",254500
"Nilsson","Ingmar","CK Trelleborg","Malmö",300,2007-04-21,"15h02",92794
"Nilsson","Ingmar","CK Trelleborg","Malmö",400,2007-05-05,"17h10",59030
"Nilsson","Ingmar","CK Trelleborg","Malmö",600,2007-05-26,"30h50",43150
"Nilsson","Ove","CK Distans","Malmö",200,2007-03-31,"7h50",254503
"Nilsson","Ove","CK Distans","Malmö",300,2007-04-21,"11h31",92797
"Nilsson","Ove","CK Distans","Malmö",400,2007-05-05,"15h28",59032
"Nilsson","Ove","CK Distans","Malmö",600,2007-05-26,"30h49",43152
"Nilsson","Roger","Hisingens CK","Göteborg",200,2007-04-21,"8h35",258222
"Norgren","Bo","CK Distans","Västerås",200,2007-03-10,"9h57",252191
"Norgren","Bo","CK Distans","Västerås",200,2007-03-24,"9h50",252672
"Norgren","Bo","CK Distans","Västerås",300,2007-04-14,"14h09",92788
"Norgren","Bo","CK Distans","Västerås",400,2007-05-26,"16h24",60441
"Nornvik","Mikael","Orebrocyklisterna","Örebro",200,2007-04-14,"7h05",258140
"Nornvik","Mikael","Orebrocyklisterna","Örebro",300,2007-04-28,"11h50",93335
"Nyander","Johan","Fredrikshofs IF CK","Stockholm",200,2007-03-31,"8h14",254484
"Nyander","Johan","Fredrikshofs IF CK","Västerås",300,2007-04-14,"14h06",92781
"Nyander","Johan","Fredrikshofs IF CK","Stockholm",300,2007-04-28,"12h53",93362
"Nyander","Johan","Fredrikshofs IF CK","Stockholm",400,2007-05-12,"18h12",59050
"Nyander","Johan","Fredrikshofs IF CK","Stockholm",600,2007-06-02,"36h40",43465
"Nyander","Johan","Fredrikshofs IF CK","Örebro",1000,2007-06-28,"66h15",5005
"Ohlanders","Gunnar","CK Distans","Västerås",300,2007-04-21,"12h57",92800
"Ohlanders","Gunnar","CK Distans","Västerås",200,2007-04-22,"8h47",258237
"Ohlanders","Gunnar","CK Distans","Sundsvall",400,2007-05-26,"16h52",60434
"Ohlanders","Gunnar","CK Distans","Sundsvall",600,2007-06-16,"29h05",48090
"Olofsson","Eric","Fredrikshofs IF CK","Stockholm",300,2007-04-28,"10h12",93363
"Olsson","Bengt-Goran","Hisingens CK","Göteborg",200,2007-04-14,"9h42",258112
"Olsson","Bengt-Goran","Hisingens CK","Göteborg",300,2007-05-05,"13h53",94274
"Olsson","Bengt-Goran","Hisingens CK","Göteborg",400,2007-05-19,"18h45",60459
"Olsson","Bengt-Goran","Hisingens CK","Göteborg",600,2007-06-09,"37h45",47046
"Olsson","Bengt-Goran","Hisingens CK","Örebro",1000,2007-06-28,"66h15",5012
"Olsson","Goran","Fredrikshofs IF CK","Stockholm",200,2007-03-31,"7h20",254485
"Olsson","Sven-Erik","CK Distans","Malmö",200,2007-03-31,"9h43",254504
"Oscarsson","Klas-Uno","Orebrocyklisterna","Örebro",200,2007-04-14,"7h15",258141
"Oscarsson","Klas-Uno","Orebrocyklisterna","Örebro",200,2007-04-21,"7h35",258188
"Oscarsson","Klas-Uno","Orebrocyklisterna","Örebro",300,2007-04-28,"11h50",93336
"Oscarsson","Klas-Uno","Orebrocyklisterna","Örebro",400,2007-05-19,"16h45",60420
"Oscarsson","Klas-Uno","Orebrocyklisterna","Örebro",600,2007-06-16,"31h09",48081
"Permatz","Pernilla","Balsta CK","Västerås",200,2007-03-10,"8h50",252184
"Permatz","Soren","Balsta CK","Västerås",200,2007-03-10,"8h50",252185
"Permatz","Soren","Balsta CK","Västerås",300,2007-04-14,"11h57",92785
"Permatz","Soren","Balsta CK","Stockholm",400,2007-05-12,"15h45",59056
"Permatz","Soren","Balsta CK","Stockholm",600,2007-06-09,"25h20",47065
"Permatz","Soren","Balsta CK","Örebro",1000,2007-06-28,"61h20",5015
"Persson","Jan","Orebrocyklisterna","Örebro",200,2007-04-14,"7h20",258142
"Persson","Jan","Orebrocyklisterna","Örebro",200,2007-04-21,"8h20",258189
"Persson","Jan","Orebrocyklisterna","Örebro",300,2007-04-28,"11h50",93337
"Persson","Jan","Orebrocyklisterna","Örebro",400,2007-06-02,"15h40",61458
"Persson","Jan","Orebrocyklisterna","Örebro",600,2007-06-09,"29h55",47052
"Persson","Jan","Orebrocyklisterna","Örebro",1000,2007-07-12,"61h15",5149
"Persson","Mats","CK Lunedi","Malmö",200,2007-04-14,"08h03",258127
"Persson","Mats","CK Lunedi","Malmö",300,2007-04-21,"11h31",92798
"Persson","Mats","CK Lunedi","Malmö",400,2007-05-05,"15h28",59033
"Persson","Mats","CK Lunedi","Malmö",600,2007-05-26,"22h51",43153
"Pettersson","Anders","Hisingens CK","Göteborg",200,2007-04-14,"9h29",258113
"Pettersson","Anders","Hisingens CK","Göteborg",300,2007-05-05,"15h23",94275
"Pettersson","Asa","Fredrikshofs IF CK","Västerås",200,2007-03-10,"9h58",252180
"Pettersson","Asa","Fredrikshofs IF CK","Västerås",300,2007-04-14,"14h20",92782
"Pettersson","Asa","Fredrikshofs IF CK","Stockholm",400,2007-05-12,"23h20",59051
"Pettersson","Asa","Fredrikshofs IF CK","Stockholm",600,2007-06-02,"29h05",43466
"Pettersson","Asa","Fredrikshofs IF CK","Örebro",1000,2007-07-12,"61h15",5147
"Pettersson","Roland","Orebrocyklisterna","Örebro",200,2007-04-21,"9h00",258190
"Pettersson","Stefan","Hisingens CK","Göteborg",200,2007-04-14,"8h57",258114
"Redén","Anders","Fredrikshofs IF CK","Stockholm",200,2007-04-21,"9h46",258206
"Ressel","Carl","Hisingens CK","Göteborg",200,2007-04-14,"6h55",258115
"Ressel","Carl","Hisingens CK","Göteborg",300,2007-05-05,"13h53",94276
"Ringblom","Ake","Fredrikshofs IF CK","Stockholm",200,2007-03-31,"8h14",254486
"Ringblom","Ake","Fredrikshofs IF CK","Stockholm",300,2007-05-05,"13h42",94291
"Ringblom","Ake","Fredrikshofs IF CK","Stockholm",400,2007-05-19,"17h28",60429
"Ringblom","Ake","Fredrikshofs IF CK","Stockholm",600,2007-06-02,"23h38",43467
"Rittedal","Yngve","Hisingens CK","Göteborg",200,2007-04-14,"8h24",258116
"Rittedal","Yngve","Hisingens CK","Göteborg",300,2007-04-28,"12h28",93322
"Rittedal","Yngve","Hisingens CK","Göteborg",400,2007-05-19,"18h45",60460
"Rittedal","Yngve","Hisingens CK","Göteborg",600,2007-06-02,"35h15",43443
"Rittedal","Yngve","Hisingens CK","Örebro",1000,2007-06-28,"66h15",5013
"Rosén","Per Eric","HPV Sverige","Stockholm",200,2007-03-31,"9h59",254495
"Rosén","Per Eric","HPV Sverige","Örebro",300,2007-05-12,"17h40",94297
"Rosén","Per-Eric","HPV Sverige","Örebro",400,2007-06-02,"25h55",61462
"Samuelsson","Lennart","Individuell","Göteborg",300,2007-04-28,"12h07",93328
"Samuelsson","Lennart","Individuell","Göteborg",400,2007-05-19,"17h25",60467
"Samuelsson","Lennert","Individuell","Göteborg",200,2007-04-21,"8h52",258228
"Sandberg","Ulf","IOGT-NTO SKOVDE","Skövde",200,2007-04-28,"10h40",258852
"Sandberg","Ulf","IOGT-NTO SKOVDE","Skövde",300,2007-05-12,"15h45",94300
"Sandberg","Ulf","IOGT-NTO SKOVDE","Skövde",400,2007-05-26,"23h10",60432
"Sandberg","Ulf","IOGT-NTO SKOVDE","Skövde",600,2007-06-09,"32h35",47057
"Sandborgh","Bengt","Fredrikshofs IF CK","Stockholm",200,2007-03-31,"7h20",254487
"Sandborgh","Bengt","Fredrikshofs IF CK","Stockholm",200,2007-04-14,"7h24",258167
"Sandborgh","Bengt","Fredrikshofs IF CK","Stockholm",300,2007-04-28,"11h20",93364
"Sandborgh","Bengt","Fredrikshofs IF CK","Stockholm",300,2007-05-05,"11h28",94292
"Sandborgh","Bengt","Fredrikshofs IF CK","Stockholm",400,2007-05-12,"14h48",59052
"Sandborgh","Bengt","Fredrikshofs IF CK","Stockholm",600,2007-06-02,"23h38",43468
"Sandborgh","Bengt","Fredrikshofs IF CK","Örebro",1000,2007-06-28,"61h20",5006
"Sannerholt","Lena","Orebrocyklisterna","Örebro",200,2007-04-14,"7h30",258143
"Sannerholt","Lena","Orebrocyklisterna","Örebro",200,2007-04-21,"8h20",258191
"Schultz","Kristina","Hisingens CK","Göteborg",200,2007-04-21,"9h55",258223
"Schultz","Kristina","Hisingens CK","Göteborg",300,2007-05-05,"13h53",94277
"Schultz","Kristina","Hisingens CK","Göteborg",400,2007-05-19,"18h45",60461
"Schultz","Kristina","Hisingens CK","Göteborg",600,2007-06-02,"37h35",43444
"Sehlin","Per","Alno CK","Sundsvall",200,2007-04-14,"7h38",258180
"Sehlin","Per","Alno CK","Sundsvall",300,2007-04-28,"12h55",93378
"Sehlin","Per","Alno CK","Sundsvall",400,2007-05-26,"16h57",60436
"Silen","Andres","Alno CK","Sundsvall",200,2007-04-21,"8h40",258233
"Sippola","Risto","Fredrikshofs IF CK","Stockholm",200,2007-04-14,"8h40",258168
"Sippola","Risto","Fredrikshofs IF CK","Stockholm",300,2007-04-28,"13h00",93365
"Sjoberg","Bo","Fredrikshofs IF CK","Västerås",200,2007-03-10,"9h55",252181
"Sjoberg","Lars","Fredrikshofs IF CK","Stockholm",200,2007-04-14,"7h19",258169
"Sjoblom","Reimert","CK Distans","Västerås",200,2007-03-10,"9h55",252192
"Sjoblom","Reimert","CK Distans","Västerås",200,2007-03-24,"9h37",252673
"Sjoblom","Reimert","CK Distans","Västerås",300,2007-04-14,"11h57",92789
"Sjoblom","Reimert","CK Distans","Stockholm",300,2007-04-28,"12h09",93371
"Sjoblom","Reimert","CK Distans","Västerås",400,2007-05-26,"16h24",60439
"Sjoblom","Reimert","CK Distans","Stockholm",600,2007-06-02,"35h44",43474
"Skance","Espen","Hisingens CK","Göteborg",300,2007-05-05,"13h53",94278
"Skogman","Torkel","CK Distans","Västerås",200,2007-03-10,"8h53",252193
"Skogman","Torkel","CK Distans","Västerås",300,2007-05-12,"12h25",94463
"Skou","Flemming","ARD","Örebro",600,2007-06-23,"34h50",48677
"Sommer","Christian","IFK Helsingborg","Malmö",200,2007-03-31,"7h53",254499
"Sommer","Christian","IFK Helsingborg","Malmö",300,2007-04-21,"11h31",92792
"Sommer","Christian","IFK Helsingborg","Malmö",400,2007-05-05,"18h56",59029
"Sommer","Christian","IFK Helsingborg","Malmö",600,2007-05-26,"22h51",43148
"Staf","Lars","Norrtalje CK","Stockholm",200,2007-03-31,"8h14",254493
"Stal","Ulf","IFK Helsingborg","Malmö",200,2007-04-14,"08h28",258125
"Stal","Ulf","IFK Helsingborg","Malmö",300,2007-04-21,"14h27",92793
"Stal","Ulf","IFK Helsingborg","Malmö",400,2007-05-12,"19h45",59083
"Stal","Ulf","IFK Helsingborg","Malmö",600,2007-05-26,"30h30",43149
"Stigborg","Par","Individuell","Malmö",200,2007-03-31,"7h50",254507
"Strach","Andrej","Hisingens CK","Göteborg",200,2007-04-14,"9h30",258117
"Strach","Andrej","Hisingens CK","Göteborg",300,2007-04-28,"16h30",93323
"Strach","Andrej","Hisingens CK","Kil",400,2007-06-02,"21h45",61451
"Stromberg","Pal","Individuell","Malmö",200,2007-03-31,"6h50",254508
"Sundin","Sune","Harnosand CK","Sundsvall",200,2007-04-14,"7h38",258182
"Terning","Pontus","Hisingens CK","Göteborg",200,2007-04-21,"9h55",258224
"Terning","Pontus","Hisingens CK","Göteborg",300,2007-05-05,"17h25",94279
"Terning","Pontus","Hisingens CK","Göteborg",400,2007-05-19,"23h05",60462
"Terning","Pontus","Hisingens CK","Göteborg",600,2007-06-16,"39h30",48088
"Thidholm","Peter","Fredrikshofs IF CK","Västerås",200,2007-03-24,"9h50",252667
"Thidholm","Peter","Fredrikshofs IF CK","Stockholm",200,2007-03-31,"8h14",254488
"Thidholm","Peter","Fredrikshofs IF CK","Västerås",300,2007-04-14,"14h06",92783
"Thidholm","Peter","Fredrikshofs IF CK","Stockholm",400,2007-05-19,"19h59",60430
"Thidholm","Peter","Fredrikshofs IF CK","Stockholm",600,2007-06-02,"32h12",43469
"Tjarnlund","Roger","Alno CK","Sundsvall",200,2007-04-14,"8h15",258181
"Tjarnlund","Roger","Alno CK","Sundsvall",200,2007-04-21,"8h40",258234
"Tjarnlund","Roger","Alno CK","Sundsvall",300,2007-04-28,"12h55",93376
"Tjarnlund","Roger","Alno CK","Sundsvall",400,2007-05-12,"17h40",59067
"Tjarnlund","Roger","Alno CK","Sundsvall",400,2007-05-26,"19h10",60437
"Tjarnlund ","Roger","Alno CK","Sundsvall",600,2007-06-02,"26h40",43479
"Tonér","Peter","CK Distans","Västerås",200,2007-03-10,"9h55",252194
"Tonér","Peter","CK Distans","Västerås",200,2007-04-22,"8h47",258238
"Tonér","Peter","CK Distans","Västerås",300,2007-05-12,"12h25",94464
"Tonér","Peter","CK Distans","Västerås",400,2007-05-26,"16h24",60440
"Tornqvist","Fredrik","Fredrikshofs IF CK","Stockholm",200,2007-03-31,"8h05",254489
"Torstensson","Victor","Hisingens CK","Göteborg",200,2007-04-14,"6h54",258118
"Unnebo","Stefan","Balsta CK","Västerås",200,2007-03-10,"8h50",252186
"Unnebo","Stefan","Balsta CK","Västerås",200,2007-03-24,"9h37",252669
"Unnebo","Stefan","Balsta CK","Stockholm",300,2007-04-28,"12h54",93368
"Unnebo","Stefan","Balsta CK","Örebro",400,2007-06-02,"15h40",61459
"Wahlstedt","Andreas","Orebrocyklisterna","Örebro",200,2007-04-14,"6h50",258144
"Wahlstedt","Andreas","Orebrocyklisterna","Örebro",200,2007-04-21,"7h35",258192
"Wallen","Max","Hisingens CK","Göteborg",300,2007-05-05,"12h15",94280
"Wallgren","Magnus","Orebrocyklisterna","Örebro",200,2007-04-14,"7h10",258145
"Wallgren","Magnus","Orebrocyklisterna","Örebro",200,2007-04-21,"7h35",258193
"Varnefalk","Ulf","Hisingens CK","Göteborg",200,2007-04-21,"9h55",258225
"Varnefalk","Ulf","Hisingens CK","Göteborg",300,2007-05-05,"15h23",94281
"Varnefalk","Ulf","Hisingens CK","Göteborg",400,2007-05-19,"22h50",60463
"Varnefalk","Ulf","Hisingens CK","Göteborg",600,2007-06-09,"38h00",47047
"Wennberg","Niklas","Fredrikshofs IF CK","Stockholm",200,2007-04-14,"7h24",258170
"Wennberg","Niklas","Fredrikshofs IF CK","Stockholm",200,2007-04-21,"7h34",258207
"Wennberg","Niklas","Fredrikshofs IF CK","Stockholm",300,2007-04-28,"10h33",93366
"Wennberg","Niklas","Fredrikshofs IF CK","Stockholm",300,2007-05-05,"11h28",94293
"Wennberg","Niklas","Fredrikshofs IF CK","Stockholm",400,2007-05-12,"14h48",59053
"Wennberg","Niklas","Fredrikshofs IF CK","Stockholm",600,2007-06-02,"24h47",43470
"Westerberg","Lars","Roslagens CK","Stockholm",200,2007-03-31,"8h14",254494
"Westlund","Thomas","Hisingens CK","Göteborg",200,2007-04-14,"10h27",258119
"Westlund","Thomas","Hisingens CK","Göteborg",300,2007-05-05,"16h05",94282
"Westlund","Thomas","Hisingens CK","Göteborg",400,2007-05-19,"22h50",60464
"Westlund","Thomas","Hisingens CK","Göteborg",600,2007-06-16,"39h30",48089
"Wihk","Lennarth","Arvika IS","Örebro",200,2007-04-14,"7h35",258148
"Wihk","Lennarth","Arvika IS","Kil",300,2007-05-12,"13h25",94461
"Wihk","Lennarth","Arvika IS","Kil",400,2007-06-02,"18h35",61452
"Wihk","Lennarth","Arvika IS","Kil",600,2007-06-16,"34h20",48080
"Vik","Sven-Erik","Orebrocyklisterna","Örebro",200,2007-04-14,"6h50",258146
"Vik","Sven-Erik","Orebrocyklisterna","Örebro",200,2007-04-21,"7h35",258194
"Vik","Sven-Erik","Orebrocyklisterna","Örebro",300,2007-04-28,"11h30",93338
"Vik","Sven-Erik","Orebrocyklisterna","Örebro",400,2007-05-19,"16h45",60421
"Vik","Sven-Erik","Orebrocyklisterna","Örebro",600,2007-06-16,"31h09",48082
"Wikland","Torbjorn","Fredrikshofs IF CK","Stockholm",200,2007-04-21,"9h12",258208
"Wikland","Torbjorn","Fredrikshofs IF CK","Stockholm",300,2007-04-28,"13h08",93367
"Wikland","Torbjorn","Fredrikshofs IF CK","Stockholm",400,2007-05-12,"19h48",59054
"Wikland","Torbjorn","Fredrikshofs IF CK","Stockholm",600,2007-06-02,"36h40",43471
"Wikland","Torbjorn","Fredrikshofs IF CK","Örebro",1000,2007-06-28,"66h15",5007
"Wolgers","John","Fredrikshofs IF CK","Stockholm",200,2007-04-14,"9h31",258171
"Xantopoulus","Joannis","Hisingens CK","Göteborg",200,2007-04-14,"9h42",258120
"Xantopoulus","Joannis","Hisingens CK","Göteborg",300,2007-04-28,"14h55",93324
"Xantopoulus","Joannis","Hisingens CK","Göteborg",400,2007-05-12,"19h00",59082
"Xantopoulus","Joannis","Hisingens CK","Göteborg",600,2007-06-02,"35h15",43445
"Zell","Christopher","Fredrikshofs IF CK","Västerås",200,2007-03-24,"9h37",252668
