<?xml version="1.0" standalone="no"?>
<!DOCTYPE svg PUBLIC "-//W3C//DTD SVG 20010904//EN"
 "http://www.w3.org/TR/2001/REC-SVG-20010904/DTD/svg10.dtd">
<svg version="1.0" xmlns="http://www.w3.org/2000/svg"
 width="192.000000pt" height="192.000000pt" viewBox="0 0 192.000000 192.000000"
 preserveAspectRatio="xMidYMid meet">
<metadata>
Created by potrace 1.11, written by Peter Selinger 2001-2013
</metadata>
<g transform="translate(0.000000,192.000000) scale(0.100000,-0.100000)"
fill="#000000" stroke="none">
<path d="M0 960 l0 -960 960 0 960 0 0 960 0 960 -960 0 -960 0 0 -960z m786
819 c11 -18 -10 -29 -67 -36 -64 -7 -117 -36 -125 -68 -9 -36 -28 -49 -53 -35
-52 27 2 113 84 135 61 17 151 19 161 4z m-298 -212 c4 -17 -10 -32 -83 -92
-216 -176 -266 -276 -184 -370 35 -40 37 -55 6 -55 -24 0 -50 23 -80 72 -49
78 -16 173 95 280 39 38 74 68 78 68 3 0 37 27 76 60 70 60 86 67 92 37z m512
-35 l21 -17 -20 -55 c-32 -87 -141 -183 -141 -126 0 7 9 21 20 31 22 19 80
107 80 120 0 6 -42 4 -115 -7 -14 -2 -21 3 -23 17 -6 43 135 72 178 37z m-135
-102 c4 -6 2 -17 -4 -24 -14 -17 -180 -100 -204 -102 -33 -3 -212 64 -215 80
-6 27 20 27 107 1 47 -14 95 -25 107 -25 12 0 60 18 105 40 91 44 95 45 104
30z m559 -1 c30 -14 39 -34 26 -58 -5 -10 -14 -36 -19 -57 -5 -22 -16 -64 -24
-94 -16 -59 -28 -120 -24 -120 1 0 40 -5 87 -10 133 -16 209 -22 295 -24 l80
-1 9 -48 c20 -100 -37 -187 -165 -253 -73 -39 -75 -39 -189 -39 -126 0 -178
13 -258 66 -24 16 -46 29 -50 29 -9 0 -92 82 -92 92 0 4 -10 18 -23 32 -24 26
-45 62 -74 131 -19 45 -21 55 -29 145 -5 62 -4 67 26 102 37 45 72 64 170 94
83 25 212 32 254 13z m-934 -330 c36 -11 72 -22 80 -24 8 -1 22 -5 30 -8 46
-17 85 -27 104 -27 12 0 33 -7 48 -14 16 -8 49 -18 75 -22 68 -9 110 -31 121
-62 9 -27 7 -370 -3 -380 -3 -3 -14 3 -26 14 -20 18 -21 24 -14 185 l7 167
-24 15 c-12 8 -40 15 -62 16 -21 0 -43 5 -50 9 -6 5 -36 15 -66 22 -30 7 -80
20 -110 30 -30 10 -88 28 -127 41 -56 17 -73 27 -73 41 0 23 10 23 90 -3z m57
-146 c40 -21 49 -44 30 -75 -15 -23 -76 -243 -84 -305 -5 -28 -2 -33 23 -40
16 -4 122 -8 236 -7 l207 0 6 -25 c9 -37 -5 -149 -21 -162 -8 -6 -14 -18 -14
-26 0 -52 -127 -163 -232 -201 -133 -49 -371 10 -452 113 -73 92 -145 209
-146 236 0 9 -8 35 -18 56 -12 27 -17 62 -16 111 2 95 31 150 115 219 61 49
169 103 209 103 10 0 21 4 24 8 10 17 99 13 133 -5z"/>
<path d="M1175 1359 c-106 -34 -135 -59 -145 -124 -10 -68 37 -199 104 -283
87 -110 150 -151 271 -175 107 -22 189 -17 255 16 70 36 126 95 141 150 6 23
13 44 14 47 2 3 0 12 -5 20 -7 12 -34 15 -112 16 -104 1 -295 26 -344 44 -24
10 -26 13 -21 63 6 56 17 113 40 192 8 28 13 53 10 58 -10 17 -122 4 -208 -24z"/>
<path d="M390 900 c-25 -8 -55 -21 -67 -27 -12 -7 -29 -13 -37 -13 -9 0 -16
-4 -16 -9 0 -5 -22 -23 -48 -40 -32 -21 -58 -48 -75 -80 -23 -42 -26 -57 -23
-114 3 -35 10 -84 16 -108 14 -51 99 -205 130 -234 11 -11 28 -28 38 -38 35
-38 137 -73 243 -82 128 -12 267 53 323 150 32 55 52 143 37 158 -8 8 -51 12
-114 13 -184 2 -241 6 -299 17 -53 10 -58 14 -58 37 0 39 27 166 54 260 14 47
26 95 26 108 0 20 -4 22 -42 20 -24 -2 -63 -10 -88 -18z"/>
</g>
</svg>
